<?xml version="1.0" encoding="utf-8"?>
<!-- Generator: Adobe Illustrator 15.0.0, SVG Export Plug-In . SVG Version: 6.00 Build 0)  -->
<!DOCTYPE svg PUBLIC "-//W3C//DTD SVG 1.1//EN" "http://www.w3.org/Graphics/SVG/1.1/DTD/svg11.dtd">
<svg version="1.1" id="play"
	 xmlns="http://www.w3.org/2000/svg" xmlns:xlink="http://www.w3.org/1999/xlink" x="0px" y="0px" width="100.022px"
	 height="200.046px" viewBox="0 0 100.022 200.046" enable-background="new 0 0 100.022 200.046" xml:space="preserve">
<g>
	<path opacity="0.8" fill="#181818" d="M84.02,62.092c0,6.262-5.076,11.338-11.339,11.338H27.343
		c-6.263,0-11.339-5.076-11.339-11.338V36.344c0-6.262,5.076-11.338,11.339-11.338h45.338c6.263,0,11.339,5.076,11.339,11.338
		V62.092z"/>
	<g>
	
		<g>
			<polygon fill="#FFFFFF" points="42.735,38.776 63.352,49.218 42.735,59.661 			"/>
		</g>
	</g>
	<polygon fill="#FFFFFF" points="42.735,38.775 63.352,49.218 42.735,59.661 	"/>
</g>
<g>
	<polygon fill="#FFFFFF" points="42.735,138.386 63.352,148.828 42.735,159.271 	"/>
	<path opacity="0.8" fill="#D10808" d="M84.02,161.702c0,6.262-5.076,11.338-11.339,11.338H27.343
		c-6.263,0-11.339-5.076-11.339-11.338v-25.748c0-6.262,5.076-11.338,11.339-11.338h45.338c6.263,0,11.339,5.076,11.339,11.338
		V161.702z"/>
	<g>
		<g>
			<polygon fill="#FFFFFF" points="42.735,138.386 63.352,148.828 42.735,159.271 			"/>
		</g>
	</g>
	<polygon fill="#FFFFFF" points="42.735,138.386 63.352,148.828 42.735,159.271 	"/>
</g>
</svg>
